module hello-client-go

go 1.18

require (
	k8s.io/apimachinery v0.20.2
	k8s.io/client-go v0.20.2
)

require (
	github.com/davecgh/go-spew v1.1.1 // indirect
	github.com/go-logr/logr v0.2.0 // indirect
	github.com/gogo/protobuf v1.3.1 // indirect
	github.com/golang/protobuf v1.4.3 // indirect
	github.com/google/gofuzz v1.1.0 // indirect
	github.com/googleapis/gnostic v0.4.1 // indirect
	github.com/imdario/mergo v0.3.5 // indirect
	github.com/json-iterator/go v1.1.10 // indirect
	github.com/modern-go/concurrent v0.0.0-20180306012644-bacd9c7ef1dd // indirect
	github.com/modern-go/reflect2 v1.0.1 // indirect
	github.com/spf13/pflag v1.0.5 // indirect
	golang.org/x/crypto v0.0.0-20201002170205-7f63de1d35b0 // indirect
	golang.org/x/net v0.0.0-20201110031124-69a78807bb2b // indirect
	golang.org/x/oauth2 v0.0.0-20200107190931-bf48bf16ab8d // indirect
	golang.org/x/sys v0.0.0-20201112073958-5cba982894dd // indirect
	golang.org/x/text v0.3.4 // indirect
	golang.org/x/time v0.0.0-20200630173020-3af7569d3a1e // indirect
	google.golang.org/appengine v1.6.5 // indirect
	google.golang.org/protobuf v1.25.0 // indirect
	gopkg.in/inf.v0 v0.9.1 // indirect
	gopkg.in/yaml.v2 v2.2.8 // indirect
	k8s.io/api v0.20.2 // indirect
	k8s.io/klog/v2 v2.4.0 // indirect
	k8s.io/utils v0.0.0-20201110183641-67b214c5f920 // indirect
	sigs.k8s.io/structured-merge-diff/v4 v4.0.2 // indirect
	sigs.k8s.io/yaml v1.2.0 // indirect
)
